EESchema Schematic File Version 4
EELAYER 26 0
EELAYER END
$Descr A4 11693 8268
encoding utf-8
Sheet 1 1
Title ""
Date ""
Rev ""
Comp ""
Comment1 ""
Comment2 ""
Comment3 ""
Comment4 ""
$EndDescr
$Comp
L bluepill:BluePill U1
U 1 1 5B8801AF
P 5500 3550
F 0 "U1" H 5525 4115 50  0000 C CNN
F 1 "BluePill" H 5525 4024 50  0000 C CNN
F 2 "bluepill:bluepill" H 5500 3550 50  0001 C CNN
F 3 "" H 5500 3550 50  0001 C CNN
	1    5500 3550
	1    0    0    -1  
$EndComp
$Comp
L nodemcu:nodemcu U2
U 1 1 5B880318
P 5650 2500
F 0 "U2" H 5650 3165 50  0000 C CNN
F 1 "nodemcu" H 5650 3074 50  0000 C CNN
F 2 "" H 5650 2500 50  0001 C CNN
F 3 "" H 5650 2500 50  0001 C CNN
	1    5650 2500
	1    0    0    -1  
$EndComp
Wire Wire Line
	6050 2100 6650 2100
Wire Wire Line
	6650 2100 6650 3250
Wire Wire Line
	6650 3250 5950 3250
Wire Wire Line
	6050 2200 6550 2200
Wire Wire Line
	6550 2200 6550 3350
Wire Wire Line
	6550 3350 5950 3350
$Comp
L power:GND #PWR0101
U 1 1 5B88051C
P 6200 2550
F 0 "#PWR0101" H 6200 2300 50  0001 C CNN
F 1 "GND" H 6205 2377 50  0000 C CNN
F 2 "" H 6200 2550 50  0001 C CNN
F 3 "" H 6200 2550 50  0001 C CNN
	1    6200 2550
	1    0    0    -1  
$EndComp
$Comp
L power:GND #PWR0102
U 1 1 5B880532
P 6100 3800
F 0 "#PWR0102" H 6100 3550 50  0001 C CNN
F 1 "GND" H 6105 3627 50  0000 C CNN
F 2 "" H 6100 3800 50  0001 C CNN
F 3 "" H 6100 3800 50  0001 C CNN
	1    6100 3800
	1    0    0    -1  
$EndComp
$Comp
L power:+3V3 #PWR0103
U 1 1 5B880594
P 5100 2000
F 0 "#PWR0103" H 5100 1850 50  0001 C CNN
F 1 "+3V3" H 5115 2173 50  0000 C CNN
F 2 "" H 5100 2000 50  0001 C CNN
F 3 "" H 5100 2000 50  0001 C CNN
	1    5100 2000
	1    0    0    -1  
$EndComp
$Comp
L power:+3V3 #PWR0104
U 1 1 5B8805AA
P 4950 3150
F 0 "#PWR0104" H 4950 3000 50  0001 C CNN
F 1 "+3V3" H 4965 3323 50  0000 C CNN
F 2 "" H 4950 3150 50  0001 C CNN
F 3 "" H 4950 3150 50  0001 C CNN
	1    4950 3150
	1    0    0    -1  
$EndComp
Wire Wire Line
	4950 3150 4950 3250
Wire Wire Line
	4950 3250 5100 3250
Wire Wire Line
	5100 2000 5100 2100
Wire Wire Line
	5100 2100 5250 2100
Wire Wire Line
	6050 2400 6200 2400
Wire Wire Line
	6200 2400 6200 2550
Wire Wire Line
	5950 3650 6100 3650
Wire Wire Line
	6100 3650 6100 3800
$Comp
L Connector:DB15_Female_HighDensity J2
U 1 1 5B8808EB
P 3750 2400
F 0 "J2" H 3750 3267 50  0000 C CNN
F 1 "DB15_Female_HighDensity" H 3750 3176 50  0000 C CNN
F 2 "Connector_Dsub:DSUB-15-HD_Female_Horizontal_P2.29x1.98mm_EdgePinOffset3.03mm_Housed_MountingHolesOffset4.94mm" H 2800 2800 50  0001 C CNN
F 3 " ~" H 2800 2800 50  0001 C CNN
	1    3750 2400
	1    0    0    -1  
$EndComp
Wire Wire Line
	4450 3450 4450 3050
Wire Wire Line
	4450 2600 4050 2600
Wire Wire Line
	4450 3450 5100 3450
Wire Wire Line
	3450 2200 3150 2200
Wire Wire Line
	3150 2200 3150 3550
Wire Wire Line
	3150 3550 3650 3550
Wire Wire Line
	5100 3650 4350 3650
Wire Wire Line
	4350 3650 4350 3350
Wire Wire Line
	4350 2400 4050 2400
$Comp
L power:GND #PWR0105
U 1 1 5B881247
P 3350 3150
F 0 "#PWR0105" H 3350 2900 50  0001 C CNN
F 1 "GND" H 3355 2977 50  0000 C CNN
F 2 "" H 3350 3150 50  0001 C CNN
F 3 "" H 3350 3150 50  0001 C CNN
	1    3350 3150
	1    0    0    -1  
$EndComp
Wire Wire Line
	3450 1900 3350 1900
Wire Wire Line
	3350 1900 3350 2000
Wire Wire Line
	3450 2100 3350 2100
Connection ~ 3350 2100
Wire Wire Line
	3350 2100 3350 2300
Wire Wire Line
	3450 2300 3350 2300
Connection ~ 3350 2300
Wire Wire Line
	3350 2300 3350 2400
Wire Wire Line
	3450 2700 3350 2700
Connection ~ 3350 2700
Wire Wire Line
	3350 2700 3350 2800
Wire Wire Line
	3450 2800 3350 2800
Connection ~ 3350 2800
Wire Wire Line
	3350 2800 3350 3150
Wire Wire Line
	3450 2000 3350 2000
Connection ~ 3350 2000
Wire Wire Line
	3350 2000 3350 2100
Wire Wire Line
	3450 2400 3350 2400
Connection ~ 3350 2400
Wire Wire Line
	3350 2400 3350 2700
$Comp
L Connector:Conn_01x03_Male J3
U 1 1 5B8836F9
P 7650 2200
F 0 "J3" H 7623 2130 50  0000 R CNN
F 1 "Conn_01x03_Male" H 7623 2221 50  0000 R CNN
F 2 "Connector_PinHeader_2.54mm:PinHeader_1x03_P2.54mm_Vertical" H 7650 2200 50  0001 C CNN
F 3 "~" H 7650 2200 50  0001 C CNN
	1    7650 2200
	-1   0    0    1   
$EndComp
Wire Wire Line
	7450 2100 6650 2100
Connection ~ 6650 2100
Wire Wire Line
	7450 2200 6550 2200
Connection ~ 6550 2200
Wire Wire Line
	7450 2300 7250 2300
Wire Wire Line
	7250 2300 7250 2450
$Comp
L power:GND #PWR0106
U 1 1 5B884E07
P 7250 2450
F 0 "#PWR0106" H 7250 2200 50  0001 C CNN
F 1 "GND" H 7255 2277 50  0000 C CNN
F 2 "" H 7250 2450 50  0001 C CNN
F 3 "" H 7250 2450 50  0001 C CNN
	1    7250 2450
	1    0    0    -1  
$EndComp
$Comp
L Device:R R3
U 1 1 5B884EDE
P 4450 2900
F 0 "R3" H 4520 2946 50  0000 L CNN
F 1 "68R" H 4520 2855 50  0000 L CNN
F 2 "Resistor_THT:R_Axial_DIN0207_L6.3mm_D2.5mm_P10.16mm_Horizontal" V 4380 2900 50  0001 C CNN
F 3 "~" H 4450 2900 50  0001 C CNN
	1    4450 2900
	1    0    0    -1  
$EndComp
Wire Wire Line
	4450 2750 4450 2600
$Comp
L Device:R R2
U 1 1 5B884F64
P 4350 3200
F 0 "R2" H 4420 3246 50  0000 L CNN
F 1 "68R" H 4420 3155 50  0000 L CNN
F 2 "Resistor_THT:R_Axial_DIN0207_L6.3mm_D2.5mm_P10.16mm_Horizontal" V 4280 3200 50  0001 C CNN
F 3 "~" H 4350 3200 50  0001 C CNN
	1    4350 3200
	1    0    0    -1  
$EndComp
Wire Wire Line
	4350 3050 4350 2400
$Comp
L Device:R R1
U 1 1 5B884F90
P 3800 3550
F 0 "R1" V 3593 3550 50  0000 C CNN
F 1 "470R" V 3684 3550 50  0000 C CNN
F 2 "Resistor_THT:R_Axial_DIN0207_L6.3mm_D2.5mm_P10.16mm_Horizontal" V 3730 3550 50  0001 C CNN
F 3 "~" H 3800 3550 50  0001 C CNN
	1    3800 3550
	0    1    1    0   
$EndComp
Wire Wire Line
	3950 3550 5100 3550
$Comp
L Connector:Conn_01x03_Male J1
U 1 1 5B885502
P 2500 3550
F 0 "J1" H 2606 3828 50  0000 C CNN
F 1 "Conn_01x03_Male" H 2606 3737 50  0000 C CNN
F 2 "Connector_PinHeader_2.54mm:PinHeader_1x03_P2.54mm_Vertical" H 2500 3550 50  0001 C CNN
F 3 "~" H 2500 3550 50  0001 C CNN
	1    2500 3550
	1    0    0    -1  
$EndComp
Wire Wire Line
	2700 3450 4450 3450
Connection ~ 4450 3450
Wire Wire Line
	2700 3550 3150 3550
Connection ~ 3150 3550
Wire Wire Line
	2700 3650 4350 3650
Connection ~ 4350 3650
$Comp
L Connector:Conn_01x02_Male J4
U 1 1 5B8874F6
P 7650 3700
F 0 "J4" H 7623 3580 50  0000 R CNN
F 1 "Conn_01x02_Male" H 7623 3671 50  0000 R CNN
F 2 "Connector_PinHeader_2.54mm:PinHeader_1x02_P2.54mm_Vertical" H 7650 3700 50  0001 C CNN
F 3 "~" H 7650 3700 50  0001 C CNN
	1    7650 3700
	-1   0    0    1   
$EndComp
$Comp
L power:GND #PWR0107
U 1 1 5B887594
P 7300 3800
F 0 "#PWR0107" H 7300 3550 50  0001 C CNN
F 1 "GND" H 7305 3627 50  0000 C CNN
F 2 "" H 7300 3800 50  0001 C CNN
F 3 "" H 7300 3800 50  0001 C CNN
	1    7300 3800
	1    0    0    -1  
$EndComp
$Comp
L power:+3V3 #PWR0108
U 1 1 5B8875B1
P 7300 3500
F 0 "#PWR0108" H 7300 3350 50  0001 C CNN
F 1 "+3V3" H 7315 3673 50  0000 C CNN
F 2 "" H 7300 3500 50  0001 C CNN
F 3 "" H 7300 3500 50  0001 C CNN
	1    7300 3500
	1    0    0    -1  
$EndComp
Wire Wire Line
	7300 3600 7300 3500
Wire Wire Line
	7300 3600 7450 3600
Wire Wire Line
	7450 3700 7300 3700
Wire Wire Line
	7300 3700 7300 3800
$EndSCHEMATC
