(module bluepill (layer F.Cu) (tedit 5B8804D7)
  (fp_text reference REF** (at -26.63 0 90) (layer F.SilkS)
    (effects (font (size 1 1) (thickness 0.15)))
  )
  (fp_text value bluepill (at 0 0) (layer F.Fab)
    (effects (font (size 1 1) (thickness 0.15)))
  )
  (fp_line (start -25.63 10.119999) (end 25.63 10.12) (layer F.SilkS) (width 0.15))
  (fp_line (start 25.63 10.12) (end 25.63 -10.119999) (layer F.SilkS) (width 0.15))
  (fp_line (start 25.63 -10.119999) (end -25.63 -10.12) (layer F.SilkS) (width 0.15))
  (fp_line (start -25.63 -10.12) (end -25.63 -3.373333) (layer F.SilkS) (width 0.15))
  (fp_line (start -25.63 -3.373333) (end -25.18 -3.373333) (layer F.SilkS) (width 0.15))
  (fp_line (start -25.18 -3.373333) (end -25.18 3.373333) (layer F.SilkS) (width 0.15))
  (fp_line (start -25.18 3.373333) (end -25.63 3.373333) (layer F.SilkS) (width 0.15))
  (fp_line (start -25.63 3.373333) (end -25.63 10.119999) (layer F.SilkS) (width 0.15))
  (fp_line (start -25.8 -10.25) (end 25.8 -10.25) (layer F.CrtYd) (width 0.05))
  (fp_line (start 25.8 -10.25) (end 25.8 10.25) (layer F.CrtYd) (width 0.05))
  (fp_line (start 25.8 10.25) (end -25.8 10.25) (layer F.CrtYd) (width 0.05))
  (fp_line (start -25.8 10.25) (end -25.8 -10.25) (layer F.CrtYd) (width 0.05))
  (pad 40 thru_hole oval (at -24.13 -7.62) (size 2 4) (drill 1) (layers *.Cu *.Mask))
  (pad 39 thru_hole oval (at -21.59 -7.62) (size 2 4) (drill 1) (layers *.Cu *.Mask))
  (pad 38 thru_hole oval (at -19.05 -7.62) (size 2 4) (drill 1) (layers *.Cu *.Mask))
  (pad 5 thru_hole oval (at -13.97 7.62) (size 2 4) (drill 1) (layers *.Cu *.Mask))
  (pad 6 thru_hole oval (at -11.43 7.62) (size 2 4) (drill 1) (layers *.Cu *.Mask))
  (pad 7 thru_hole oval (at -8.89 7.62) (size 2 4) (drill 1) (layers *.Cu *.Mask))
  (pad 32 thru_hole oval (at -3.81 -7.62) (size 2 4) (drill 1) (layers *.Cu *.Mask))
  (pad 26 thru_hole oval (at 11.43 -7.62) (size 2 4) (drill 1) (layers *.Cu *.Mask))
  (pad 19 thru_hole oval (at 21.59 7.62) (size 2 4) (drill 1) (layers *.Cu *.Mask))
  (pad 21 thru_hole oval (at 24.13 -7.62) (size 2 4) (drill 1) (layers *.Cu *.Mask))
  (pad 20 thru_hole oval (at 24.13 7.62) (size 2 4) (drill 1) (layers *.Cu *.Mask))
)
