G04 #@! TF.GenerationSoftware,KiCad,Pcbnew,5.0.0*
G04 #@! TF.CreationDate,2018-08-19T14:09:13+02:00*
G04 #@! TF.ProjectId,vga-adapter,7667612D616461707465722E6B696361,rev?*
G04 #@! TF.SameCoordinates,Original*
G04 #@! TF.FileFunction,Soldermask,Bot*
G04 #@! TF.FilePolarity,Negative*
%FSLAX46Y46*%
G04 Gerber Fmt 4.6, Leading zero omitted, Abs format (unit mm)*
G04 Created by KiCad (PCBNEW 5.0.0) date Sun Aug 19 14:09:13 2018*
%MOMM*%
%LPD*%
G01*
G04 APERTURE LIST*
%ADD10C,0.300000*%
%ADD11R,2.400000X2.400000*%
%ADD12O,2.400000X2.400000*%
%ADD13C,2.400000*%
%ADD14R,2.000000X2.000000*%
%ADD15C,2.000000*%
%ADD16C,4.400000*%
G04 APERTURE END LIST*
D10*
X152308571Y-102048571D02*
X152594285Y-102048571D01*
X152737142Y-102120000D01*
X152808571Y-102191428D01*
X152951428Y-102405714D01*
X153022857Y-102691428D01*
X153022857Y-103262857D01*
X152951428Y-103405714D01*
X152880000Y-103477142D01*
X152737142Y-103548571D01*
X152451428Y-103548571D01*
X152308571Y-103477142D01*
X152237142Y-103405714D01*
X152165714Y-103262857D01*
X152165714Y-102905714D01*
X152237142Y-102762857D01*
X152308571Y-102691428D01*
X152451428Y-102620000D01*
X152737142Y-102620000D01*
X152880000Y-102691428D01*
X152951428Y-102762857D01*
X153022857Y-102905714D01*
X151308571Y-102691428D02*
X151451428Y-102620000D01*
X151522857Y-102548571D01*
X151594285Y-102405714D01*
X151594285Y-102334285D01*
X151522857Y-102191428D01*
X151451428Y-102120000D01*
X151308571Y-102048571D01*
X151022857Y-102048571D01*
X150880000Y-102120000D01*
X150808571Y-102191428D01*
X150737142Y-102334285D01*
X150737142Y-102405714D01*
X150808571Y-102548571D01*
X150880000Y-102620000D01*
X151022857Y-102691428D01*
X151308571Y-102691428D01*
X151451428Y-102762857D01*
X151522857Y-102834285D01*
X151594285Y-102977142D01*
X151594285Y-103262857D01*
X151522857Y-103405714D01*
X151451428Y-103477142D01*
X151308571Y-103548571D01*
X151022857Y-103548571D01*
X150880000Y-103477142D01*
X150808571Y-103405714D01*
X150737142Y-103262857D01*
X150737142Y-102977142D01*
X150808571Y-102834285D01*
X150880000Y-102762857D01*
X151022857Y-102691428D01*
X149237142Y-103548571D02*
X149737142Y-102834285D01*
X150094285Y-103548571D02*
X150094285Y-102048571D01*
X149522857Y-102048571D01*
X149380000Y-102120000D01*
X149308571Y-102191428D01*
X149237142Y-102334285D01*
X149237142Y-102548571D01*
X149308571Y-102691428D01*
X149380000Y-102762857D01*
X149522857Y-102834285D01*
X150094285Y-102834285D01*
X152308571Y-98238571D02*
X152594285Y-98238571D01*
X152737142Y-98310000D01*
X152808571Y-98381428D01*
X152951428Y-98595714D01*
X153022857Y-98881428D01*
X153022857Y-99452857D01*
X152951428Y-99595714D01*
X152880000Y-99667142D01*
X152737142Y-99738571D01*
X152451428Y-99738571D01*
X152308571Y-99667142D01*
X152237142Y-99595714D01*
X152165714Y-99452857D01*
X152165714Y-99095714D01*
X152237142Y-98952857D01*
X152308571Y-98881428D01*
X152451428Y-98810000D01*
X152737142Y-98810000D01*
X152880000Y-98881428D01*
X152951428Y-98952857D01*
X153022857Y-99095714D01*
X151308571Y-98881428D02*
X151451428Y-98810000D01*
X151522857Y-98738571D01*
X151594285Y-98595714D01*
X151594285Y-98524285D01*
X151522857Y-98381428D01*
X151451428Y-98310000D01*
X151308571Y-98238571D01*
X151022857Y-98238571D01*
X150880000Y-98310000D01*
X150808571Y-98381428D01*
X150737142Y-98524285D01*
X150737142Y-98595714D01*
X150808571Y-98738571D01*
X150880000Y-98810000D01*
X151022857Y-98881428D01*
X151308571Y-98881428D01*
X151451428Y-98952857D01*
X151522857Y-99024285D01*
X151594285Y-99167142D01*
X151594285Y-99452857D01*
X151522857Y-99595714D01*
X151451428Y-99667142D01*
X151308571Y-99738571D01*
X151022857Y-99738571D01*
X150880000Y-99667142D01*
X150808571Y-99595714D01*
X150737142Y-99452857D01*
X150737142Y-99167142D01*
X150808571Y-99024285D01*
X150880000Y-98952857D01*
X151022857Y-98881428D01*
X149237142Y-99738571D02*
X149737142Y-99024285D01*
X150094285Y-99738571D02*
X150094285Y-98238571D01*
X149522857Y-98238571D01*
X149380000Y-98310000D01*
X149308571Y-98381428D01*
X149237142Y-98524285D01*
X149237142Y-98738571D01*
X149308571Y-98881428D01*
X149380000Y-98952857D01*
X149522857Y-99024285D01*
X150094285Y-99024285D01*
X153022857Y-94928571D02*
X153022857Y-95928571D01*
X153380000Y-94357142D02*
X153737142Y-95428571D01*
X152808571Y-95428571D01*
X152380000Y-94428571D02*
X151380000Y-94428571D01*
X152022857Y-95928571D01*
X150522857Y-94428571D02*
X150380000Y-94428571D01*
X150237142Y-94500000D01*
X150165714Y-94571428D01*
X150094285Y-94714285D01*
X150022857Y-95000000D01*
X150022857Y-95357142D01*
X150094285Y-95642857D01*
X150165714Y-95785714D01*
X150237142Y-95857142D01*
X150380000Y-95928571D01*
X150522857Y-95928571D01*
X150665714Y-95857142D01*
X150737142Y-95785714D01*
X150808571Y-95642857D01*
X150880000Y-95357142D01*
X150880000Y-95000000D01*
X150808571Y-94714285D01*
X150737142Y-94571428D01*
X150665714Y-94500000D01*
X150522857Y-94428571D01*
X148522857Y-95928571D02*
X149022857Y-95214285D01*
X149380000Y-95928571D02*
X149380000Y-94428571D01*
X148808571Y-94428571D01*
X148665714Y-94500000D01*
X148594285Y-94571428D01*
X148522857Y-94714285D01*
X148522857Y-94928571D01*
X148594285Y-95071428D01*
X148665714Y-95142857D01*
X148808571Y-95214285D01*
X149380000Y-95214285D01*
X153022857Y-91118571D02*
X153022857Y-92118571D01*
X153380000Y-90547142D02*
X153737142Y-91618571D01*
X152808571Y-91618571D01*
X152380000Y-90618571D02*
X151380000Y-90618571D01*
X152022857Y-92118571D01*
X150522857Y-90618571D02*
X150380000Y-90618571D01*
X150237142Y-90690000D01*
X150165714Y-90761428D01*
X150094285Y-90904285D01*
X150022857Y-91190000D01*
X150022857Y-91547142D01*
X150094285Y-91832857D01*
X150165714Y-91975714D01*
X150237142Y-92047142D01*
X150380000Y-92118571D01*
X150522857Y-92118571D01*
X150665714Y-92047142D01*
X150737142Y-91975714D01*
X150808571Y-91832857D01*
X150880000Y-91547142D01*
X150880000Y-91190000D01*
X150808571Y-90904285D01*
X150737142Y-90761428D01*
X150665714Y-90690000D01*
X150522857Y-90618571D01*
X148522857Y-92118571D02*
X149022857Y-91404285D01*
X149380000Y-92118571D02*
X149380000Y-90618571D01*
X148808571Y-90618571D01*
X148665714Y-90690000D01*
X148594285Y-90761428D01*
X148522857Y-90904285D01*
X148522857Y-91118571D01*
X148594285Y-91261428D01*
X148665714Y-91332857D01*
X148808571Y-91404285D01*
X149380000Y-91404285D01*
X153022857Y-87308571D02*
X153022857Y-88308571D01*
X153380000Y-86737142D02*
X153737142Y-87808571D01*
X152808571Y-87808571D01*
X152380000Y-86808571D02*
X151380000Y-86808571D01*
X152022857Y-88308571D01*
X150522857Y-86808571D02*
X150380000Y-86808571D01*
X150237142Y-86880000D01*
X150165714Y-86951428D01*
X150094285Y-87094285D01*
X150022857Y-87380000D01*
X150022857Y-87737142D01*
X150094285Y-88022857D01*
X150165714Y-88165714D01*
X150237142Y-88237142D01*
X150380000Y-88308571D01*
X150522857Y-88308571D01*
X150665714Y-88237142D01*
X150737142Y-88165714D01*
X150808571Y-88022857D01*
X150880000Y-87737142D01*
X150880000Y-87380000D01*
X150808571Y-87094285D01*
X150737142Y-86951428D01*
X150665714Y-86880000D01*
X150522857Y-86808571D01*
X148522857Y-88308571D02*
X149022857Y-87594285D01*
X149380000Y-88308571D02*
X149380000Y-86808571D01*
X148808571Y-86808571D01*
X148665714Y-86880000D01*
X148594285Y-86951428D01*
X148522857Y-87094285D01*
X148522857Y-87308571D01*
X148594285Y-87451428D01*
X148665714Y-87522857D01*
X148808571Y-87594285D01*
X149380000Y-87594285D01*
X134695000Y-101278571D02*
X134695000Y-102492857D01*
X134766428Y-102635714D01*
X134837857Y-102707142D01*
X134980714Y-102778571D01*
X135195000Y-102778571D01*
X135337857Y-102707142D01*
X134695000Y-102207142D02*
X134837857Y-102278571D01*
X135123571Y-102278571D01*
X135266428Y-102207142D01*
X135337857Y-102135714D01*
X135409285Y-101992857D01*
X135409285Y-101564285D01*
X135337857Y-101421428D01*
X135266428Y-101350000D01*
X135123571Y-101278571D01*
X134837857Y-101278571D01*
X134695000Y-101350000D01*
X133980714Y-101278571D02*
X133980714Y-102278571D01*
X133980714Y-101421428D02*
X133909285Y-101350000D01*
X133766428Y-101278571D01*
X133552142Y-101278571D01*
X133409285Y-101350000D01*
X133337857Y-101492857D01*
X133337857Y-102278571D01*
X131980714Y-102278571D02*
X131980714Y-100778571D01*
X131980714Y-102207142D02*
X132123571Y-102278571D01*
X132409285Y-102278571D01*
X132552142Y-102207142D01*
X132623571Y-102135714D01*
X132695000Y-101992857D01*
X132695000Y-101564285D01*
X132623571Y-101421428D01*
X132552142Y-101350000D01*
X132409285Y-101278571D01*
X132123571Y-101278571D01*
X131980714Y-101350000D01*
X135480714Y-98738571D02*
X135123571Y-99738571D01*
X134766428Y-98738571D01*
X134266428Y-99667142D02*
X134123571Y-99738571D01*
X133837857Y-99738571D01*
X133695000Y-99667142D01*
X133623571Y-99524285D01*
X133623571Y-99452857D01*
X133695000Y-99310000D01*
X133837857Y-99238571D01*
X134052142Y-99238571D01*
X134195000Y-99167142D01*
X134266428Y-99024285D01*
X134266428Y-98952857D01*
X134195000Y-98810000D01*
X134052142Y-98738571D01*
X133837857Y-98738571D01*
X133695000Y-98810000D01*
X133123571Y-98738571D02*
X132766428Y-99738571D01*
X132409285Y-98738571D02*
X132766428Y-99738571D01*
X132909285Y-100095714D01*
X132980714Y-100167142D01*
X133123571Y-100238571D01*
X131837857Y-98738571D02*
X131837857Y-99738571D01*
X131837857Y-98881428D02*
X131766428Y-98810000D01*
X131623571Y-98738571D01*
X131409285Y-98738571D01*
X131266428Y-98810000D01*
X131195000Y-98952857D01*
X131195000Y-99738571D01*
X129837857Y-99667142D02*
X129980714Y-99738571D01*
X130266428Y-99738571D01*
X130409285Y-99667142D01*
X130480714Y-99595714D01*
X130552142Y-99452857D01*
X130552142Y-99024285D01*
X130480714Y-98881428D01*
X130409285Y-98810000D01*
X130266428Y-98738571D01*
X129980714Y-98738571D01*
X129837857Y-98810000D01*
X135337857Y-97198571D02*
X135337857Y-95698571D01*
X134695000Y-97198571D02*
X134695000Y-96412857D01*
X134766428Y-96270000D01*
X134909285Y-96198571D01*
X135123571Y-96198571D01*
X135266428Y-96270000D01*
X135337857Y-96341428D01*
X134052142Y-97127142D02*
X133909285Y-97198571D01*
X133623571Y-97198571D01*
X133480714Y-97127142D01*
X133409285Y-96984285D01*
X133409285Y-96912857D01*
X133480714Y-96770000D01*
X133623571Y-96698571D01*
X133837857Y-96698571D01*
X133980714Y-96627142D01*
X134052142Y-96484285D01*
X134052142Y-96412857D01*
X133980714Y-96270000D01*
X133837857Y-96198571D01*
X133623571Y-96198571D01*
X133480714Y-96270000D01*
X132909285Y-96198571D02*
X132552142Y-97198571D01*
X132195000Y-96198571D02*
X132552142Y-97198571D01*
X132695000Y-97555714D01*
X132766428Y-97627142D01*
X132909285Y-97698571D01*
X131623571Y-96198571D02*
X131623571Y-97198571D01*
X131623571Y-96341428D02*
X131552142Y-96270000D01*
X131409285Y-96198571D01*
X131195000Y-96198571D01*
X131052142Y-96270000D01*
X130980714Y-96412857D01*
X130980714Y-97198571D01*
X129623571Y-97127142D02*
X129766428Y-97198571D01*
X130052142Y-97198571D01*
X130195000Y-97127142D01*
X130266428Y-97055714D01*
X130337857Y-96912857D01*
X130337857Y-96484285D01*
X130266428Y-96341428D01*
X130195000Y-96270000D01*
X130052142Y-96198571D01*
X129766428Y-96198571D01*
X129623571Y-96270000D01*
X135337857Y-94658571D02*
X135337857Y-93158571D01*
X135337857Y-93730000D02*
X135195000Y-93658571D01*
X134909285Y-93658571D01*
X134766428Y-93730000D01*
X134695000Y-93801428D01*
X134623571Y-93944285D01*
X134623571Y-94372857D01*
X134695000Y-94515714D01*
X134766428Y-94587142D01*
X134909285Y-94658571D01*
X135195000Y-94658571D01*
X135337857Y-94587142D01*
X133766428Y-94658571D02*
X133909285Y-94587142D01*
X133980714Y-94444285D01*
X133980714Y-93158571D01*
X132552142Y-93658571D02*
X132552142Y-94658571D01*
X133195000Y-93658571D02*
X133195000Y-94444285D01*
X133123571Y-94587142D01*
X132980714Y-94658571D01*
X132766428Y-94658571D01*
X132623571Y-94587142D01*
X132552142Y-94515714D01*
X131266428Y-94587142D02*
X131409285Y-94658571D01*
X131695000Y-94658571D01*
X131837857Y-94587142D01*
X131909285Y-94444285D01*
X131909285Y-93872857D01*
X131837857Y-93730000D01*
X131695000Y-93658571D01*
X131409285Y-93658571D01*
X131266428Y-93730000D01*
X131195000Y-93872857D01*
X131195000Y-94015714D01*
X131909285Y-94158571D01*
X134695000Y-91118571D02*
X134695000Y-92332857D01*
X134766428Y-92475714D01*
X134837857Y-92547142D01*
X134980714Y-92618571D01*
X135195000Y-92618571D01*
X135337857Y-92547142D01*
X134695000Y-92047142D02*
X134837857Y-92118571D01*
X135123571Y-92118571D01*
X135266428Y-92047142D01*
X135337857Y-91975714D01*
X135409285Y-91832857D01*
X135409285Y-91404285D01*
X135337857Y-91261428D01*
X135266428Y-91190000D01*
X135123571Y-91118571D01*
X134837857Y-91118571D01*
X134695000Y-91190000D01*
X133980714Y-92118571D02*
X133980714Y-91118571D01*
X133980714Y-91404285D02*
X133909285Y-91261428D01*
X133837857Y-91190000D01*
X133695000Y-91118571D01*
X133552142Y-91118571D01*
X132480714Y-92047142D02*
X132623571Y-92118571D01*
X132909285Y-92118571D01*
X133052142Y-92047142D01*
X133123571Y-91904285D01*
X133123571Y-91332857D01*
X133052142Y-91190000D01*
X132909285Y-91118571D01*
X132623571Y-91118571D01*
X132480714Y-91190000D01*
X132409285Y-91332857D01*
X132409285Y-91475714D01*
X133123571Y-91618571D01*
X131195000Y-92047142D02*
X131337857Y-92118571D01*
X131623571Y-92118571D01*
X131766428Y-92047142D01*
X131837857Y-91904285D01*
X131837857Y-91332857D01*
X131766428Y-91190000D01*
X131623571Y-91118571D01*
X131337857Y-91118571D01*
X131195000Y-91190000D01*
X131123571Y-91332857D01*
X131123571Y-91475714D01*
X131837857Y-91618571D01*
X130480714Y-91118571D02*
X130480714Y-92118571D01*
X130480714Y-91261428D02*
X130409285Y-91190000D01*
X130266428Y-91118571D01*
X130052142Y-91118571D01*
X129909285Y-91190000D01*
X129837857Y-91332857D01*
X129837857Y-92118571D01*
X135337857Y-89578571D02*
X135337857Y-88578571D01*
X135337857Y-88864285D02*
X135266428Y-88721428D01*
X135195000Y-88650000D01*
X135052142Y-88578571D01*
X134909285Y-88578571D01*
X133837857Y-89507142D02*
X133980714Y-89578571D01*
X134266428Y-89578571D01*
X134409285Y-89507142D01*
X134480714Y-89364285D01*
X134480714Y-88792857D01*
X134409285Y-88650000D01*
X134266428Y-88578571D01*
X133980714Y-88578571D01*
X133837857Y-88650000D01*
X133766428Y-88792857D01*
X133766428Y-88935714D01*
X134480714Y-89078571D01*
X132480714Y-89578571D02*
X132480714Y-88078571D01*
X132480714Y-89507142D02*
X132623571Y-89578571D01*
X132909285Y-89578571D01*
X133052142Y-89507142D01*
X133123571Y-89435714D01*
X133195000Y-89292857D01*
X133195000Y-88864285D01*
X133123571Y-88721428D01*
X133052142Y-88650000D01*
X132909285Y-88578571D01*
X132623571Y-88578571D01*
X132480714Y-88650000D01*
D11*
G04 #@! TO.C,J2*
X138430000Y-88900000D03*
D12*
X138430000Y-91440000D03*
X138430000Y-93980000D03*
X138430000Y-96520000D03*
X138430000Y-99060000D03*
X138430000Y-101600000D03*
G04 #@! TD*
D13*
G04 #@! TO.C,R1*
X156210000Y-87630000D03*
D12*
X146050000Y-87630000D03*
G04 #@! TD*
G04 #@! TO.C,R2*
X146050000Y-91440000D03*
D13*
X156210000Y-91440000D03*
G04 #@! TD*
G04 #@! TO.C,R3*
X156210000Y-95250000D03*
D12*
X146050000Y-95250000D03*
G04 #@! TD*
G04 #@! TO.C,R4*
X146050000Y-99060000D03*
D13*
X156210000Y-99060000D03*
G04 #@! TD*
G04 #@! TO.C,R5*
X146050000Y-102870000D03*
D12*
X156210000Y-102870000D03*
G04 #@! TD*
D14*
G04 #@! TO.C,J1*
X165100000Y-91440000D03*
D15*
X165100000Y-93730000D03*
X165100000Y-96020000D03*
X165100000Y-98310000D03*
X165100000Y-100600000D03*
X167080000Y-90295000D03*
X167080000Y-92585000D03*
X167080000Y-94875000D03*
X167080000Y-97165000D03*
X167080000Y-99455000D03*
X169060000Y-91440000D03*
X169060000Y-93730000D03*
X169060000Y-96020000D03*
X169060000Y-98310000D03*
X169060000Y-100600000D03*
D16*
X167150000Y-108255000D03*
X167150000Y-83255000D03*
G04 #@! TD*
M02*
