G04 #@! TF.GenerationSoftware,KiCad,Pcbnew,5.0.0*
G04 #@! TF.CreationDate,2018-08-19T14:09:13+02:00*
G04 #@! TF.ProjectId,vga-adapter,7667612D616461707465722E6B696361,rev?*
G04 #@! TF.SameCoordinates,Original*
G04 #@! TF.FileFunction,Profile,NP*
%FSLAX46Y46*%
G04 Gerber Fmt 4.6, Leading zero omitted, Abs format (unit mm)*
G04 Created by KiCad (PCBNEW 5.0.0) date Sun Aug 19 14:09:13 2018*
%MOMM*%
%LPD*%
G01*
G04 APERTURE LIST*
%ADD10C,0.150000*%
%ADD11C,0.200000*%
G04 APERTURE END LIST*
D10*
X127000000Y-79375000D02*
X127000000Y-92075000D01*
D11*
X129540000Y-76835000D02*
X127000000Y-79375000D01*
X133985000Y-76835000D02*
X129540000Y-76835000D01*
X174625000Y-76835000D02*
X133985000Y-76835000D01*
X177165000Y-79375000D02*
X174625000Y-76835000D01*
X127000000Y-112395000D02*
X127000000Y-92075000D01*
X129540000Y-114935000D02*
X127000000Y-112395000D01*
X174625000Y-114935000D02*
X129540000Y-114935000D01*
X177165000Y-112395000D02*
X174625000Y-114935000D01*
X177165000Y-79375000D02*
X177165000Y-112395000D01*
M02*
