<?xml version="1.0" standalone="no"?>
 <!DOCTYPE svg PUBLIC "-//W3C//DTD SVG 1.1//EN" 
 "http://www.w3.org/Graphics/SVG/1.1/DTD/svg11.dtd"> 
<svg xmlns="http://www.w3.org/2000/svg" version="1.1" 
    width="29.7002cm" height="21.0007cm" viewBox="0 0 116930 82680 ">
<title>SVG Picture created as vga-adapter-Edge.Cuts.svg date 2018/08/19 14:49:31 </title>
  <desc>Picture generated by PCBNEW </desc>
<g style="fill:#000000; fill-opacity:1;stroke:#000000; stroke-opacity:1;
stroke-linecap:round; stroke-linejoin:round; "
 transform="translate(0 0) scale(1 1)">
</g>
<g style="fill:#000000; fill-opacity:0.0; 
stroke:#000000; stroke-width:-0.000393701; stroke-opacity:1; 
stroke-linecap:round; stroke-linejoin:round;">
</g>
<g style="fill:#000000; fill-opacity:0.0; 
stroke:#000000; stroke-width:787.402; stroke-opacity:1; 
stroke-linecap:round; stroke-linejoin:round;">
<path d="M1500 -14750
L1500 -3750
" />
<path d="M1500 -2500
L1500 -3750
" />
<path d="M2500 -1500
L1500 -2500
" />
<path d="M19000 -1500
L2500 -1500
" />
<path d="M20000 -2500
L19000 -1500
" />
<path d="M2500 -15750
L1500 -14750
" />
<path d="M19000 -15750
L2500 -15750
" />
<path d="M20000 -14750
L19000 -15750
" />
<path d="M20000 -2500
L20000 -14750
" />
</g> 
</svg>
