G04 #@! TF.GenerationSoftware,KiCad,Pcbnew,5.0.0*
G04 #@! TF.CreationDate,2018-08-19T14:49:43+02:00*
G04 #@! TF.ProjectId,vga-adapter,7667612D616461707465722E6B696361,rev?*
G04 #@! TF.SameCoordinates,Original*
G04 #@! TF.FileFunction,Copper,L1,Top,Signal*
G04 #@! TF.FilePolarity,Positive*
%FSLAX46Y46*%
G04 Gerber Fmt 4.6, Leading zero omitted, Abs format (unit mm)*
G04 Created by KiCad (PCBNEW 5.0.0) date Sun Aug 19 14:49:43 2018*
%MOMM*%
%LPD*%
G01*
G04 APERTURE LIST*
G04 #@! TA.AperFunction,ComponentPad*
%ADD10R,2.000000X2.000000*%
G04 #@! TD*
G04 #@! TA.AperFunction,ComponentPad*
%ADD11O,2.000000X2.000000*%
G04 #@! TD*
G04 #@! TA.AperFunction,ComponentPad*
%ADD12C,2.000000*%
G04 #@! TD*
G04 #@! TA.AperFunction,ComponentPad*
%ADD13R,1.600000X1.600000*%
G04 #@! TD*
G04 #@! TA.AperFunction,ComponentPad*
%ADD14C,1.600000*%
G04 #@! TD*
G04 #@! TA.AperFunction,ComponentPad*
%ADD15C,4.000000*%
G04 #@! TD*
G04 #@! TA.AperFunction,Conductor*
%ADD16C,0.400000*%
G04 #@! TD*
G04 APERTURE END LIST*
D10*
G04 #@! TO.P,J2,1*
G04 #@! TO.N,/red*
X15875000Y15240000D03*
D11*
G04 #@! TO.P,J2,2*
G04 #@! TO.N,/green*
X15875000Y17780000D03*
G04 #@! TO.P,J2,3*
G04 #@! TO.N,/blue*
X15875000Y20320000D03*
G04 #@! TO.P,J2,4*
G04 #@! TO.N,/hsync*
X15875000Y22860000D03*
G04 #@! TO.P,J2,5*
G04 #@! TO.N,/vsync*
X15875000Y25400000D03*
G04 #@! TO.P,J2,6*
G04 #@! TO.N,GND*
X15875000Y27940000D03*
G04 #@! TD*
D12*
G04 #@! TO.P,R1,1*
G04 #@! TO.N,Net-(J1-Pad1)*
X33655000Y13970000D03*
D11*
G04 #@! TO.P,R1,2*
G04 #@! TO.N,/red*
X23495000Y13970000D03*
G04 #@! TD*
G04 #@! TO.P,R2,2*
G04 #@! TO.N,/green*
X23495000Y17780000D03*
D12*
G04 #@! TO.P,R2,1*
G04 #@! TO.N,Net-(J1-Pad2)*
X33655000Y17780000D03*
G04 #@! TD*
G04 #@! TO.P,R3,1*
G04 #@! TO.N,Net-(J1-Pad3)*
X33655000Y21590000D03*
D11*
G04 #@! TO.P,R3,2*
G04 #@! TO.N,/blue*
X23495000Y21590000D03*
G04 #@! TD*
G04 #@! TO.P,R4,2*
G04 #@! TO.N,/hsync*
X23495000Y25400000D03*
D12*
G04 #@! TO.P,R4,1*
G04 #@! TO.N,Net-(J1-Pad13)*
X33655000Y25400000D03*
G04 #@! TD*
G04 #@! TO.P,R5,1*
G04 #@! TO.N,/vsync*
X23495000Y29210000D03*
D11*
G04 #@! TO.P,R5,2*
G04 #@! TO.N,Net-(J1-Pad14)*
X33655000Y29210000D03*
G04 #@! TD*
D13*
G04 #@! TO.P,J1,1*
G04 #@! TO.N,Net-(J1-Pad1)*
X42545000Y17780000D03*
D14*
G04 #@! TO.P,J1,2*
G04 #@! TO.N,Net-(J1-Pad2)*
X42545000Y20070000D03*
G04 #@! TO.P,J1,3*
G04 #@! TO.N,Net-(J1-Pad3)*
X42545000Y22360000D03*
G04 #@! TO.P,J1,4*
G04 #@! TO.N,N/C*
X42545000Y24650000D03*
G04 #@! TO.P,J1,5*
G04 #@! TO.N,GND*
X42545000Y26940000D03*
G04 #@! TO.P,J1,6*
X44525000Y16635000D03*
G04 #@! TO.P,J1,7*
X44525000Y18925000D03*
G04 #@! TO.P,J1,8*
X44525000Y21215000D03*
G04 #@! TO.P,J1,9*
G04 #@! TO.N,N/C*
X44525000Y23505000D03*
G04 #@! TO.P,J1,10*
G04 #@! TO.N,GND*
X44525000Y25795000D03*
G04 #@! TO.P,J1,11*
G04 #@! TO.N,N/C*
X46505000Y17780000D03*
G04 #@! TO.P,J1,12*
X46505000Y20070000D03*
G04 #@! TO.P,J1,13*
G04 #@! TO.N,Net-(J1-Pad13)*
X46505000Y22360000D03*
G04 #@! TO.P,J1,14*
G04 #@! TO.N,Net-(J1-Pad14)*
X46505000Y24650000D03*
G04 #@! TO.P,J1,15*
G04 #@! TO.N,N/C*
X46505000Y26940000D03*
D15*
G04 #@! TO.P,J1,0*
G04 #@! TO.N,Net-(J1-Pad0)*
X44595000Y34595000D03*
X44595000Y9595000D03*
G04 #@! TD*
D16*
G04 #@! TO.N,Net-(J1-Pad1)*
X37465000Y17780000D02*
X33655000Y13970000D01*
X42545000Y17780000D02*
X37465000Y17780000D01*
G04 #@! TO.N,Net-(J1-Pad2)*
X35945000Y20070000D02*
X33655000Y17780000D01*
X42545000Y20070000D02*
X35945000Y20070000D01*
G04 #@! TO.N,Net-(J1-Pad3)*
X34425000Y22360000D02*
X33655000Y21590000D01*
X42545000Y22360000D02*
X34425000Y22360000D01*
G04 #@! TO.N,Net-(J1-Pad13)*
X31115000Y24130000D02*
X32385000Y25400000D01*
X31115000Y12700000D02*
X31115000Y24130000D01*
X32385000Y11430000D02*
X31115000Y12700000D01*
X36195000Y11430000D02*
X32385000Y11430000D01*
X46505000Y22360000D02*
X47355000Y22360000D01*
X47355000Y22360000D02*
X48260000Y21455000D01*
X48260000Y21455000D02*
X48260000Y15875000D01*
X48260000Y15875000D02*
X46355000Y13970000D01*
X32385000Y25400000D02*
X33655000Y25400000D01*
X46355000Y13970000D02*
X38735000Y13970000D01*
X38735000Y13970000D02*
X36195000Y11430000D01*
G04 #@! TO.N,Net-(J1-Pad14)*
X47510000Y24650000D02*
X46505000Y24650000D01*
X48260000Y28575000D02*
X48260000Y25400000D01*
X43815000Y29210000D02*
X47625000Y29210000D01*
X40005000Y33020000D02*
X43815000Y29210000D01*
X48260000Y25400000D02*
X47510000Y24650000D01*
X14605000Y33020000D02*
X40005000Y33020000D01*
X13970000Y12700000D02*
X13970000Y32385000D01*
X33655000Y29210000D02*
X31115000Y29210000D01*
X31115000Y29210000D02*
X29845000Y27940000D01*
X29845000Y27940000D02*
X29845000Y12700000D01*
X29845000Y12700000D02*
X28575000Y11430000D01*
X47625000Y29210000D02*
X48260000Y28575000D01*
X13970000Y32385000D02*
X14605000Y33020000D01*
X28575000Y11430000D02*
X15240000Y11430000D01*
X15240000Y11430000D02*
X13970000Y12700000D01*
G04 #@! TO.N,GND*
X42545000Y26940000D02*
X37735000Y31750000D01*
X15875000Y27940000D02*
X18415000Y27940000D01*
X18415000Y27940000D02*
X22225000Y31750000D01*
X37735000Y31750000D02*
X22225000Y31750000D01*
X44525000Y16635000D02*
X44525000Y18925000D01*
X44525000Y18925000D02*
X44525000Y21215000D01*
X44525000Y25795000D02*
X44525000Y26595000D01*
X44180000Y26940000D02*
X42545000Y26940000D01*
X44525000Y26595000D02*
X44180000Y26940000D01*
G04 #@! TO.N,/red*
X22225000Y15240000D02*
X23495000Y13970000D01*
X15875000Y15240000D02*
X22225000Y15240000D01*
G04 #@! TO.N,/green*
X23495000Y17780000D02*
X15875000Y17780000D01*
G04 #@! TO.N,/blue*
X15875000Y20320000D02*
X18415000Y20320000D01*
X18415000Y20320000D02*
X19685000Y21590000D01*
X19685000Y21590000D02*
X23495000Y21590000D01*
G04 #@! TO.N,/vsync*
X15875000Y25400000D02*
X18415000Y25400000D01*
X18415000Y25400000D02*
X22225000Y29210000D01*
X22225000Y29210000D02*
X23495000Y29210000D01*
G04 #@! TO.N,/hsync*
X15875000Y22860000D02*
X18415000Y22860000D01*
X18415000Y22860000D02*
X20955000Y25400000D01*
X20955000Y25400000D02*
X23495000Y25400000D01*
G04 #@! TD*
M02*
