(export (version D)
  (design
    (source /home/themba/synced/vga-out/spiflash/spiflash-breakoutboard/spiflash-breakoutboard.sch)
    (date "Wed 22 Aug 2018 02:01:50 PM CEST")
    (tool "Eeschema 5.0.0")
    (sheet (number 1) (name /) (tstamps /)
      (title_block
        (title)
        (company)
        (rev)
        (date)
        (source spiflash-breakoutboard.sch)
        (comment (number 1) (value ""))
        (comment (number 2) (value ""))
        (comment (number 3) (value ""))
        (comment (number 4) (value "")))))
  (components
    (comp (ref U2)
      (value W25Q16BVSSIG)
      (footprint W25Q16BVSSIG:SOIC127P790X216-8N)
      (datasheet Unavailable)
      (fields
        (field (name Field4) "Flash, pin, soic, flash, Memory, Semiconductors and Actives, serial, ic")
        (field (name Field5) W25Q16BVSSIG)
        (field (name Field6) None)
        (field (name Field7) "SOIC-8 Winbond")
        (field (name Field8) Winbond))
      (libsource (lib W25Q16BVSSIG) (part W25Q16BVSSIG) (description ""))
      (sheetpath (names /) (tstamps /))
      (tstamp 5B7D447C))
    (comp (ref U1)
      (value 4066)
      (footprint Package_DIP:DIP-14_W7.62mm_LongPads)
      (datasheet http://www.ti.com/lit/ds/symlink/cd4066b.pdf)
      (libsource (lib 4xxx) (part 4066) (description "Quad Analog Switches"))
      (sheetpath (names /) (tstamps /))
      (tstamp 5B7D4AD8))
    (comp (ref J1)
      (value Conn_01x10_Male)
      (footprint Connector_PinHeader_2.54mm:PinHeader_1x10_P2.54mm_Vertical)
      (datasheet ~)
      (libsource (lib Connector) (part Conn_01x10_Male) (description "Generic connector, single row, 01x10, script generated (kicad-library-utils/schlib/autogen/connector/)"))
      (sheetpath (names /) (tstamps /))
      (tstamp 5B7DBCCE)))
  (libparts
    (libpart (lib 4xxx) (part 4016)
      (aliases
        (alias 4066))
      (description "Quad Analog Switches")
      (docs http://www.ti.com/lit/ds/symlink/cd4016b.pdf)
      (footprints
        (fp DIP?14*))
      (fields
        (field (name Reference) U)
        (field (name Value) 4016))
      (pins
        (pin (num 1) (name ~) (type passive))
        (pin (num 2) (name ~) (type passive))
        (pin (num 3) (name ~) (type passive))
        (pin (num 4) (name ~) (type passive))
        (pin (num 5) (name ~) (type input))
        (pin (num 6) (name ~) (type input))
        (pin (num 7) (name VSS) (type power_in))
        (pin (num 8) (name ~) (type passive))
        (pin (num 9) (name ~) (type passive))
        (pin (num 10) (name ~) (type passive))
        (pin (num 11) (name ~) (type passive))
        (pin (num 12) (name ~) (type input))
        (pin (num 13) (name ~) (type input))
        (pin (num 14) (name VDD) (type power_in))))
    (libpart (lib Connector) (part Conn_01x10_Male)
      (description "Generic connector, single row, 01x10, script generated (kicad-library-utils/schlib/autogen/connector/)")
      (docs ~)
      (footprints
        (fp Connector*:*_1x??_*))
      (fields
        (field (name Reference) J)
        (field (name Value) Conn_01x10_Male))
      (pins
        (pin (num 1) (name Pin_1) (type passive))
        (pin (num 2) (name Pin_2) (type passive))
        (pin (num 3) (name Pin_3) (type passive))
        (pin (num 4) (name Pin_4) (type passive))
        (pin (num 5) (name Pin_5) (type passive))
        (pin (num 6) (name Pin_6) (type passive))
        (pin (num 7) (name Pin_7) (type passive))
        (pin (num 8) (name Pin_8) (type passive))
        (pin (num 9) (name Pin_9) (type passive))
        (pin (num 10) (name Pin_10) (type passive))))
    (libpart (lib W25Q16BVSSIG) (part W25Q16BVSSIG)
      (fields
        (field (name Reference) U)
        (field (name Value) W25Q16BVSSIG)
        (field (name Footprint) SOIC127P790X216-8N)
        (field (name Datasheet) Unavailable)
        (field (name Field4) "Flash, pin, soic, flash, Memory, Semiconductors and Actives, serial, ic")
        (field (name Field5) W25Q16BVSSIG)
        (field (name Field6) None)
        (field (name Field7) "SOIC-8 Winbond")
        (field (name Field8) Winbond))
      (pins
        (pin (num 1) (name /CS) (type input))
        (pin (num 2) (name "DO(IO1)") (type BiDi))
        (pin (num 3) (name "/WP(IO2)") (type BiDi))
        (pin (num 4) (name GND) (type power_in))
        (pin (num 5) (name "DI(IO0)") (type BiDi))
        (pin (num 6) (name CLK) (type input))
        (pin (num 7) (name "/HOLD(IO3)") (type BiDi))
        (pin (num 8) (name VCC) (type power_in)))))
  (libraries
    (library (logical 4xxx)
      (uri /usr/share/kicad/library/4xxx.lib))
    (library (logical Connector)
      (uri /usr/share/kicad/library/Connector.lib))
    (library (logical W25Q16BVSSIG)
      (uri /home/themba/synced/vga-out/spiflash/spiflash-breakoutboard/footprints/W25Q16BVSSIG.lib)))
  (nets
    (net (code 1) (name /CLK_SEL)
      (node (ref J1) (pin 1))
      (node (ref U1) (pin 13)))
    (net (code 2) (name /CLK_ALT)
      (node (ref J1) (pin 2))
      (node (ref U1) (pin 1)))
    (net (code 3) (name GND)
      (node (ref U1) (pin 7))
      (node (ref U2) (pin 4))
      (node (ref J1) (pin 3)))
    (net (code 4) (name /IO2)
      (node (ref U2) (pin 3))
      (node (ref J1) (pin 4)))
    (net (code 5) (name /IO1)
      (node (ref U2) (pin 2))
      (node (ref J1) (pin 5)))
    (net (code 6) (name /CS)
      (node (ref U2) (pin 1))
      (node (ref J1) (pin 6)))
    (net (code 7) (name /IO0)
      (node (ref J1) (pin 7))
      (node (ref U2) (pin 5)))
    (net (code 8) (name /CLK)
      (node (ref J1) (pin 8))
      (node (ref U2) (pin 6))
      (node (ref U1) (pin 2)))
    (net (code 9) (name /IO3)
      (node (ref U2) (pin 7))
      (node (ref J1) (pin 9)))
    (net (code 10) (name VCC)
      (node (ref J1) (pin 10))
      (node (ref U1) (pin 14))
      (node (ref U2) (pin 8)))))