EESchema Schematic File Version 4
EELAYER 26 0
EELAYER END
$Descr A4 11693 8268
encoding utf-8
Sheet 1 1
Title ""
Date ""
Rev ""
Comp ""
Comment1 ""
Comment2 ""
Comment3 ""
Comment4 ""
$EndDescr
$Comp
L W25Q16BVSSIG:W25Q16BVSSIG U2
U 1 1 5B7D447C
P 5000 3350
F 0 "U2" H 5000 4020 50  0000 C CNN
F 1 "W25Q16BVSSIG" H 5000 3929 50  0000 C CNN
F 2 "W25Q16BVSSIG:SOIC127P790X216-8N" H 5000 3350 50  0001 L BNN
F 3 "Unavailable" H 5000 3350 50  0001 L BNN
F 4 "Flash, pin, soic, flash, Memory, Semiconductors and Actives, serial, ic" H 5000 3350 50  0001 L BNN "Field4"
F 5 "W25Q16BVSSIG" H 5000 3350 50  0001 L BNN "Field5"
F 6 "None" H 5000 3350 50  0001 L BNN "Field6"
F 7 "SOIC-8 Winbond" H 5000 3350 50  0001 L BNN "Field7"
F 8 "Winbond" H 5000 3350 50  0001 L BNN "Field8"
	1    5000 3350
	1    0    0    -1  
$EndComp
$Comp
L 4xxx:4066 U1
U 1 1 5B7D4AD8
P 3450 3250
F 0 "U1" H 3450 3078 50  0000 C CNN
F 1 "4066" H 3450 2987 50  0000 C CNN
F 2 "Package_DIP:DIP-14_W7.62mm_LongPads" H 3450 3250 50  0001 C CNN
F 3 "http://www.ti.com/lit/ds/symlink/cd4066b.pdf" H 3450 3250 50  0001 C CNN
	1    3450 3250
	1    0    0    -1  
$EndComp
$Comp
L 4xxx:4066 U1
U 5 1 5B7D4B45
P 6750 3300
F 0 "U1" H 6980 3346 50  0000 L CNN
F 1 "4066" H 6980 3255 50  0000 L CNN
F 2 "Package_DIP:DIP-14_W7.62mm_LongPads" H 6750 3300 50  0001 C CNN
F 3 "http://www.ti.com/lit/ds/symlink/cd4066b.pdf" H 6750 3300 50  0001 C CNN
	5    6750 3300
	1    0    0    -1  
$EndComp
$Comp
L power:VCC #PWR05
U 1 1 5B7D4D87
P 6750 2600
F 0 "#PWR05" H 6750 2450 50  0001 C CNN
F 1 "VCC" H 6767 2773 50  0000 C CNN
F 2 "" H 6750 2600 50  0001 C CNN
F 3 "" H 6750 2600 50  0001 C CNN
	1    6750 2600
	1    0    0    -1  
$EndComp
$Comp
L power:VCC #PWR03
U 1 1 5B7D4D9F
P 5850 2800
F 0 "#PWR03" H 5850 2650 50  0001 C CNN
F 1 "VCC" H 5867 2973 50  0000 C CNN
F 2 "" H 5850 2800 50  0001 C CNN
F 3 "" H 5850 2800 50  0001 C CNN
	1    5850 2800
	1    0    0    -1  
$EndComp
$Comp
L power:GND #PWR04
U 1 1 5B7D4E02
P 5850 3800
F 0 "#PWR04" H 5850 3550 50  0001 C CNN
F 1 "GND" H 5855 3627 50  0000 C CNN
F 2 "" H 5850 3800 50  0001 C CNN
F 3 "" H 5850 3800 50  0001 C CNN
	1    5850 3800
	1    0    0    -1  
$EndComp
$Comp
L power:GND #PWR06
U 1 1 5B7D4E1A
P 6750 3950
F 0 "#PWR06" H 6750 3700 50  0001 C CNN
F 1 "GND" H 6755 3777 50  0000 C CNN
F 2 "" H 6750 3950 50  0001 C CNN
F 3 "" H 6750 3950 50  0001 C CNN
	1    6750 3950
	1    0    0    -1  
$EndComp
Wire Wire Line
	6750 3950 6750 3800
Wire Wire Line
	6750 2600 6750 2800
Wire Wire Line
	5850 2800 5850 2950
Wire Wire Line
	5850 2950 5700 2950
Wire Wire Line
	5700 3650 5850 3650
Wire Wire Line
	5850 3650 5850 3800
$Comp
L power:VCC #PWR01
U 1 1 5B7D6214
P 3100 4000
F 0 "#PWR01" H 3100 3850 50  0001 C CNN
F 1 "VCC" H 3117 4173 50  0000 C CNN
F 2 "" H 3100 4000 50  0001 C CNN
F 3 "" H 3100 4000 50  0001 C CNN
	1    3100 4000
	1    0    0    -1  
$EndComp
$Comp
L Connector:Conn_01x10_Male J1
U 1 1 5B7DBCCE
P 2050 3250
F 0 "J1" H 2156 3828 50  0000 C CNN
F 1 "Conn_01x10_Male" H 1800 3900 50  0000 C CNN
F 2 "Connector_PinHeader_2.54mm:PinHeader_1x10_P2.54mm_Vertical" H 2050 3250 50  0001 C CNN
F 3 "~" H 2050 3250 50  0001 C CNN
	1    2050 3250
	1    0    0    -1  
$EndComp
$Comp
L power:GND #PWR0101
U 1 1 5B7E4C3C
P 3200 4300
F 0 "#PWR0101" H 3200 4050 50  0001 C CNN
F 1 "GND" H 3205 4127 50  0000 C CNN
F 2 "" H 3200 4300 50  0001 C CNN
F 3 "" H 3200 4300 50  0001 C CNN
	1    3200 4300
	1    0    0    -1  
$EndComp
Entry Wire Line
	6150 3250 6250 3350
Entry Wire Line
	6150 3350 6250 3450
Entry Wire Line
	4200 4050 4300 4150
Entry Wire Line
	4100 4050 4200 4150
Entry Wire Line
	4000 4050 4100 4150
Entry Wire Line
	3900 4050 4000 4150
Wire Wire Line
	4300 3450 4200 3450
Wire Wire Line
	4200 3450 4200 4050
Wire Wire Line
	4300 3350 4100 3350
Wire Wire Line
	4100 3350 4100 4050
Wire Wire Line
	4300 3250 4000 3250
Wire Wire Line
	4000 3250 4000 4050
Wire Wire Line
	4300 3150 3900 3150
Wire Wire Line
	3900 3150 3900 4050
Wire Wire Line
	3750 3250 4000 3250
Connection ~ 4000 3250
Wire Wire Line
	5700 3250 6150 3250
Wire Wire Line
	6150 3350 5700 3350
Entry Wire Line
	2650 2850 2750 2950
Entry Wire Line
	2650 2950 2750 3050
Entry Wire Line
	2650 3050 2750 3150
Entry Wire Line
	2650 3150 2750 3250
Entry Wire Line
	2650 3250 2750 3350
Entry Wire Line
	2650 3350 2750 3450
Entry Wire Line
	2650 3450 2750 3550
Entry Wire Line
	2650 3550 2750 3650
Entry Wire Line
	2650 3650 2750 3750
Entry Wire Line
	2650 3750 2750 3850
Entry Wire Line
	3100 4050 3200 4150
Entry Wire Line
	3100 4150 3200 4250
Wire Wire Line
	3200 4300 3200 4250
Wire Wire Line
	3100 4000 3100 4050
Wire Wire Line
	2250 2850 2650 2850
Wire Wire Line
	2250 2950 2650 2950
Wire Wire Line
	2250 3050 2650 3050
Wire Wire Line
	2250 3150 2650 3150
Wire Wire Line
	2250 3250 2650 3250
Wire Wire Line
	2250 3350 2650 3350
Wire Wire Line
	2250 3450 2650 3450
Wire Wire Line
	2250 3550 2650 3550
Wire Wire Line
	2250 3650 2650 3650
Wire Wire Line
	2250 3750 2650 3750
Entry Wire Line
	2750 3000 2850 3100
Entry Wire Line
	2750 3100 2850 3200
Wire Wire Line
	3150 3250 2850 3250
Wire Wire Line
	2850 3250 2850 3200
Wire Wire Line
	3450 2950 3150 2950
Wire Wire Line
	3150 2950 3150 3100
Wire Wire Line
	3150 3100 2850 3100
Wire Bus Line
	6250 3350 6250 4150
Wire Bus Line
	2750 4150 6250 4150
Wire Bus Line
	2750 2950 2750 4150
Text Label 5800 3250 0    50   ~ 0
IO3
Text Label 5800 3350 0    50   ~ 0
IO2
Text Label 4200 3150 0    50   ~ 0
CS
Text Label 4200 3250 0    50   ~ 0
CLK
Text Label 4200 3350 0    50   ~ 0
IO0
Text Label 4200 3450 0    50   ~ 0
IO1
Text Label 3200 2950 0    50   ~ 0
CLK_SEL
Text Label 3000 3250 0    50   ~ 0
CLK_ALT
Text Label 2300 3750 0    50   ~ 0
VCC
Text Label 2300 3650 0    50   ~ 0
IO3
Text Label 2300 3550 0    50   ~ 0
CLK
Text Label 2300 3450 0    50   ~ 0
IO0
Text Label 2300 3350 0    50   ~ 0
CS
Text Label 2300 3250 0    50   ~ 0
IO1
Text Label 2300 3150 0    50   ~ 0
IO2
Text Label 2300 3050 0    50   ~ 0
GND
Text Label 2300 2850 0    50   ~ 0
CLK_SEL
Text Label 2300 2950 0    50   ~ 0
CLK_ALT
$EndSCHEMATC
