(kicad_pcb (version 20171130) (host pcbnew 5.0.0)

  (general
    (thickness 1.6)
    (drawings 19)
    (tracks 68)
    (zones 0)
    (modules 7)
    (nets 11)
  )

  (page A4)
  (layers
    (0 F.Cu signal)
    (31 B.Cu signal)
    (32 B.Adhes user)
    (33 F.Adhes user)
    (34 B.Paste user)
    (35 F.Paste user)
    (36 B.SilkS user)
    (37 F.SilkS user)
    (38 B.Mask user)
    (39 F.Mask user)
    (40 Dwgs.User user)
    (41 Cmts.User user)
    (42 Eco1.User user)
    (43 Eco2.User user)
    (44 Edge.Cuts user)
    (45 Margin user)
    (46 B.CrtYd user)
    (47 F.CrtYd user)
    (48 B.Fab user)
    (49 F.Fab user)
  )

  (setup
    (last_trace_width 0.5)
    (trace_clearance 0.5)
    (zone_clearance 0.508)
    (zone_45_only no)
    (trace_min 0.2)
    (segment_width 2)
    (edge_width 2)
    (via_size 2)
    (via_drill 0.8)
    (via_min_size 0.4)
    (via_min_drill 0.3)
    (uvia_size 0.3)
    (uvia_drill 0.1)
    (uvias_allowed no)
    (uvia_min_size 0.2)
    (uvia_min_drill 0.1)
    (pcb_text_width 0.3)
    (pcb_text_size 1.5 1.5)
    (mod_edge_width 0.15)
    (mod_text_size 1 1)
    (mod_text_width 0.15)
    (pad_size 2 2)
    (pad_drill 0.9)
    (pad_to_mask_clearance 0.2)
    (aux_axis_origin 0 0)
    (visible_elements FFFFFF7F)
    (pcbplotparams
      (layerselection 0x010fc_ffffffff)
      (usegerberextensions false)
      (usegerberattributes false)
      (usegerberadvancedattributes false)
      (creategerberjobfile false)
      (excludeedgelayer true)
      (linewidth 0.100000)
      (plotframeref false)
      (viasonmask false)
      (mode 1)
      (useauxorigin false)
      (hpglpennumber 1)
      (hpglpenspeed 20)
      (hpglpendiameter 15.000000)
      (psnegative false)
      (psa4output false)
      (plotreference true)
      (plotvalue true)
      (plotinvisibletext false)
      (padsonsilk false)
      (subtractmaskfromsilk false)
      (outputformat 1)
      (mirror false)
      (drillshape 1)
      (scaleselection 1)
      (outputdirectory ""))
  )

  (net 0 "")
  (net 1 VCC)
  (net 2 GND)
  (net 3 /CLK_SEL)
  (net 4 /CLK_ALT)
  (net 5 /IO2)
  (net 6 /IO1)
  (net 7 /CS)
  (net 8 /IO0)
  (net 9 /CLK)
  (net 10 /IO3)

  (net_class Default "This is the default net class."
    (clearance 0.5)
    (trace_width 0.5)
    (via_dia 2)
    (via_drill 0.8)
    (uvia_dia 0.3)
    (uvia_drill 0.1)
    (diff_pair_gap 0.25)
    (diff_pair_width 1)
    (add_net /CLK)
    (add_net /CLK_ALT)
    (add_net /CLK_SEL)
    (add_net /CS)
    (add_net /IO0)
    (add_net /IO1)
    (add_net /IO2)
    (add_net /IO3)
    (add_net GND)
    (add_net VCC)
  )

  (module MountingHole:MountingHole_3.2mm_M3 (layer F.Cu) (tedit 56D1B4CB) (tstamp 5B9F6D89)
    (at 135.255 83.82)
    (descr "Mounting Hole 3.2mm, no annular, M3")
    (tags "mounting hole 3.2mm no annular m3")
    (attr virtual)
    (fp_text reference REF** (at 0 -9.525) (layer F.SilkS)
      (effects (font (size 1 1) (thickness 0.15)))
    )
    (fp_text value MountingHole_3.2mm_M3 (at -0.635 -8.255) (layer F.Fab)
      (effects (font (size 1 1) (thickness 0.15)))
    )
    (fp_text user %R (at 0.3 0) (layer F.Fab)
      (effects (font (size 1 1) (thickness 0.15)))
    )
    (fp_circle (center 0 0) (end 3.2 0) (layer Cmts.User) (width 0.15))
    (fp_circle (center 0 0) (end 3.45 0) (layer F.CrtYd) (width 0.05))
    (pad 1 np_thru_hole circle (at 0 0) (size 3.2 3.2) (drill 3.2) (layers *.Cu *.Mask))
  )

  (module MountingHole:MountingHole_3.2mm_M3 (layer F.Cu) (tedit 56D1B4CB) (tstamp 5B9F6D62)
    (at 135.255 105.41)
    (descr "Mounting Hole 3.2mm, no annular, M3")
    (tags "mounting hole 3.2mm no annular m3")
    (attr virtual)
    (fp_text reference REF** (at 0.635 9.525) (layer F.SilkS)
      (effects (font (size 1 1) (thickness 0.15)))
    )
    (fp_text value MountingHole_3.2mm_M3 (at 0.635 7.62) (layer F.Fab)
      (effects (font (size 1 1) (thickness 0.15)))
    )
    (fp_text user %R (at 0.3 0) (layer F.Fab)
      (effects (font (size 1 1) (thickness 0.15)))
    )
    (fp_circle (center 0 0) (end 3.2 0) (layer Cmts.User) (width 0.15))
    (fp_circle (center 0 0) (end 3.45 0) (layer F.CrtYd) (width 0.05))
    (pad 1 np_thru_hole circle (at 0 0) (size 3.2 3.2) (drill 3.2) (layers *.Cu *.Mask))
  )

  (module Connector_PinHeader_2.54mm:PinHeader_1x10_P2.54mm_Vertical (layer F.Cu) (tedit 5B7D4B10) (tstamp 5B947C13)
    (at 142.875 105.41 90)
    (descr "Through hole straight pin header, 1x10, 2.54mm pitch, single row")
    (tags "Through hole pin header THT 1x10 2.54mm single row")
    (path /5B7DBCCE)
    (fp_text reference J1 (at 0 -2.33 90) (layer F.SilkS)
      (effects (font (size 1 1) (thickness 0.15)))
    )
    (fp_text value Conn_01x10_Male (at -6.985 11.43 180) (layer F.Fab)
      (effects (font (size 1 1) (thickness 0.15)))
    )
    (fp_line (start -0.635 -1.27) (end 1.27 -1.27) (layer F.Fab) (width 0.1))
    (fp_line (start 1.27 -1.27) (end 1.27 24.13) (layer F.Fab) (width 0.1))
    (fp_line (start 1.27 24.13) (end -1.27 24.13) (layer F.Fab) (width 0.1))
    (fp_line (start -1.27 24.13) (end -1.27 -0.635) (layer F.Fab) (width 0.1))
    (fp_line (start -1.27 -0.635) (end -0.635 -1.27) (layer F.Fab) (width 0.1))
    (fp_line (start -1.33 24.19) (end 1.33 24.19) (layer F.SilkS) (width 0.12))
    (fp_line (start -1.33 1.27) (end -1.33 24.19) (layer F.SilkS) (width 0.12))
    (fp_line (start 1.33 1.27) (end 1.33 24.19) (layer F.SilkS) (width 0.12))
    (fp_line (start -1.33 1.27) (end 1.33 1.27) (layer F.SilkS) (width 0.12))
    (fp_line (start -1.33 0) (end -1.33 -1.33) (layer F.SilkS) (width 0.12))
    (fp_line (start -1.33 -1.33) (end 0 -1.33) (layer F.SilkS) (width 0.12))
    (fp_line (start -1.8 -1.8) (end -1.8 24.65) (layer F.CrtYd) (width 0.05))
    (fp_line (start -1.8 24.65) (end 1.8 24.65) (layer F.CrtYd) (width 0.05))
    (fp_line (start 1.8 24.65) (end 1.8 -1.8) (layer F.CrtYd) (width 0.05))
    (fp_line (start 1.8 -1.8) (end -1.8 -1.8) (layer F.CrtYd) (width 0.05))
    (fp_text user %R (at 0 11.43 180) (layer F.Fab)
      (effects (font (size 1 1) (thickness 0.15)))
    )
    (pad 1 thru_hole rect (at 0 0 90) (size 1.7 1.7) (drill 1) (layers *.Cu *.Mask)
      (net 3 /CLK_SEL))
    (pad 2 thru_hole oval (at 0 2.54 90) (size 1.7 1.7) (drill 1) (layers *.Cu *.Mask)
      (net 4 /CLK_ALT))
    (pad 3 thru_hole oval (at 0 5.08 90) (size 1.7 1.7) (drill 1) (layers *.Cu *.Mask)
      (net 2 GND))
    (pad 4 thru_hole oval (at 0 7.62 90) (size 1.7 1.7) (drill 1) (layers *.Cu *.Mask)
      (net 5 /IO2))
    (pad 5 thru_hole oval (at 0 10.16 90) (size 1.7 1.7) (drill 1) (layers *.Cu *.Mask)
      (net 6 /IO1))
    (pad 6 thru_hole oval (at 0 12.7 90) (size 1.7 1.7) (drill 1) (layers *.Cu *.Mask)
      (net 7 /CS))
    (pad 7 thru_hole oval (at 0 15.24 90) (size 2 2) (drill 0.9) (layers *.Cu *.Mask)
      (net 8 /IO0))
    (pad 8 thru_hole oval (at 0 17.78 90) (size 2 2) (drill 0.9) (layers *.Cu *.Mask)
      (net 9 /CLK))
    (pad 9 thru_hole oval (at 0 20.32 90) (size 1.7 1.7) (drill 1) (layers *.Cu *.Mask)
      (net 10 /IO3))
    (pad 10 thru_hole oval (at 0 22.86 90) (size 1.7 1.7) (drill 1) (layers *.Cu *.Mask)
      (net 1 VCC))
    (model ${KISYS3DMOD}/Connector_PinHeader_2.54mm.3dshapes/PinHeader_1x10_P2.54mm_Vertical.wrl
      (at (xyz 0 0 0))
      (scale (xyz 1 1 1))
      (rotate (xyz 0 0 0))
    )
  )

  (module Package_DIP:DIP-14_W7.62mm_LongPads (layer F.Cu) (tedit 5A02E8C5) (tstamp 5B947F7B)
    (at 150.495 97.79 180)
    (descr "14-lead though-hole mounted DIP package, row spacing 7.62 mm (300 mils), LongPads")
    (tags "THT DIP DIL PDIP 2.54mm 7.62mm 300mil LongPads")
    (path /5B7D4AD8)
    (fp_text reference U1 (at 3.81 -2.33 180) (layer F.SilkS)
      (effects (font (size 1 1) (thickness 0.15)))
    )
    (fp_text value 4066 (at 3.81 17.57 180) (layer F.Fab)
      (effects (font (size 1 1) (thickness 0.15)))
    )
    (fp_arc (start 3.81 -1.33) (end 2.81 -1.33) (angle -180) (layer F.SilkS) (width 0.12))
    (fp_line (start 1.635 -1.27) (end 6.985 -1.27) (layer F.Fab) (width 0.1))
    (fp_line (start 6.985 -1.27) (end 6.985 16.51) (layer F.Fab) (width 0.1))
    (fp_line (start 6.985 16.51) (end 0.635 16.51) (layer F.Fab) (width 0.1))
    (fp_line (start 0.635 16.51) (end 0.635 -0.27) (layer F.Fab) (width 0.1))
    (fp_line (start 0.635 -0.27) (end 1.635 -1.27) (layer F.Fab) (width 0.1))
    (fp_line (start 2.81 -1.33) (end 1.56 -1.33) (layer F.SilkS) (width 0.12))
    (fp_line (start 1.56 -1.33) (end 1.56 16.57) (layer F.SilkS) (width 0.12))
    (fp_line (start 1.56 16.57) (end 6.06 16.57) (layer F.SilkS) (width 0.12))
    (fp_line (start 6.06 16.57) (end 6.06 -1.33) (layer F.SilkS) (width 0.12))
    (fp_line (start 6.06 -1.33) (end 4.81 -1.33) (layer F.SilkS) (width 0.12))
    (fp_line (start -1.45 -1.55) (end -1.45 16.8) (layer F.CrtYd) (width 0.05))
    (fp_line (start -1.45 16.8) (end 9.1 16.8) (layer F.CrtYd) (width 0.05))
    (fp_line (start 9.1 16.8) (end 9.1 -1.55) (layer F.CrtYd) (width 0.05))
    (fp_line (start 9.1 -1.55) (end -1.45 -1.55) (layer F.CrtYd) (width 0.05))
    (fp_text user %R (at 3.81 7.62 180) (layer F.Fab)
      (effects (font (size 1 1) (thickness 0.15)))
    )
    (pad 1 thru_hole rect (at 0 0 180) (size 2.4 1.6) (drill 0.8) (layers *.Cu *.Mask)
      (net 4 /CLK_ALT))
    (pad 8 thru_hole oval (at 7.62 15.24 180) (size 2.4 1.6) (drill 0.8) (layers *.Cu *.Mask))
    (pad 2 thru_hole oval (at 0 2.54 180) (size 2.4 1.6) (drill 0.8) (layers *.Cu *.Mask)
      (net 9 /CLK))
    (pad 9 thru_hole oval (at 7.62 12.7 180) (size 2.4 1.6) (drill 0.8) (layers *.Cu *.Mask))
    (pad 3 thru_hole oval (at 0 5.08 180) (size 2.4 1.6) (drill 0.8) (layers *.Cu *.Mask))
    (pad 10 thru_hole oval (at 7.62 10.16 180) (size 2.4 1.6) (drill 0.8) (layers *.Cu *.Mask))
    (pad 4 thru_hole oval (at 0 7.62 180) (size 2.4 1.6) (drill 0.8) (layers *.Cu *.Mask))
    (pad 11 thru_hole oval (at 7.62 7.62 180) (size 2.4 1.6) (drill 0.8) (layers *.Cu *.Mask))
    (pad 5 thru_hole oval (at 0 10.16 180) (size 2.4 1.6) (drill 0.8) (layers *.Cu *.Mask))
    (pad 12 thru_hole oval (at 7.62 5.08 180) (size 2.4 1.6) (drill 0.8) (layers *.Cu *.Mask))
    (pad 6 thru_hole oval (at 0 12.7 180) (size 2.4 1.6) (drill 0.8) (layers *.Cu *.Mask))
    (pad 13 thru_hole oval (at 7.62 2.54 180) (size 2.4 1.6) (drill 0.8) (layers *.Cu *.Mask)
      (net 3 /CLK_SEL))
    (pad 7 thru_hole oval (at 0 15.24 180) (size 2.4 1.6) (drill 0.8) (layers *.Cu *.Mask)
      (net 2 GND))
    (pad 14 thru_hole oval (at 7.62 0 180) (size 2.4 1.6) (drill 0.8) (layers *.Cu *.Mask)
      (net 1 VCC))
    (model ${KISYS3DMOD}/Package_DIP.3dshapes/DIP-14_W7.62mm.wrl
      (at (xyz 0 0 0))
      (scale (xyz 1 1 1))
      (rotate (xyz 0 0 0))
    )
  )

  (module W25Q16BVSSIG:SOIC127P790X216-8N (layer F.Cu) (tedit 0) (tstamp 5B947C51)
    (at 162.56 90.805 270)
    (path /5B7D447C)
    (attr smd)
    (fp_text reference U2 (at -1.69408 -3.51045 270) (layer F.SilkS)
      (effects (font (size 1.00241 1.00241) (thickness 0.05)))
    )
    (fp_text value W25Q16BVSSIG (at -1.05729 3.50952 270) (layer F.SilkS)
      (effects (font (size 1.00214 1.00214) (thickness 0.05)))
    )
    (fp_circle (center -5.085 -2.085) (end -4.985 -2.085) (layer F.SilkS) (width 0.2))
    (fp_circle (center -2.175 -1.985) (end -2.075 -1.985) (layer Dwgs.User) (width 0.2))
    (fp_line (start -2.69 -2.69) (end 2.69 -2.69) (layer Dwgs.User) (width 0.127))
    (fp_line (start -2.69 2.69) (end 2.69 2.69) (layer Dwgs.User) (width 0.127))
    (fp_line (start -2.69 -2.69) (end 2.69 -2.69) (layer F.SilkS) (width 0.127))
    (fp_line (start -2.69 2.69) (end 2.69 2.69) (layer F.SilkS) (width 0.127))
    (fp_line (start -2.69 -2.69) (end -2.69 2.69) (layer Dwgs.User) (width 0.127))
    (fp_line (start 2.69 -2.69) (end 2.69 2.69) (layer Dwgs.User) (width 0.127))
    (fp_line (start -4.66 -2.94) (end 4.66 -2.94) (layer Eco1.User) (width 0.05))
    (fp_line (start -4.66 2.94) (end 4.66 2.94) (layer Eco1.User) (width 0.05))
    (fp_line (start -4.66 -2.94) (end -4.66 2.94) (layer Eco1.User) (width 0.05))
    (fp_line (start 4.66 -2.94) (end 4.66 2.94) (layer Eco1.User) (width 0.05))
    (fp_line (start -2.69 -2.69) (end -2.69 -2.5) (layer F.SilkS) (width 0.127))
    (fp_line (start 2.69 -2.69) (end 2.69 -2.5) (layer F.SilkS) (width 0.127))
    (fp_line (start 2.69 2.51) (end 2.69 2.69) (layer F.SilkS) (width 0.127))
    (fp_line (start -2.69 2.51) (end -2.69 2.69) (layer F.SilkS) (width 0.127))
    (pad 1 smd rect (at -3.605 -1.905 270) (size 1.61 0.58) (layers F.Cu F.Paste F.Mask)
      (net 7 /CS))
    (pad 2 smd rect (at -3.605 -0.635 270) (size 1.61 0.58) (layers F.Cu F.Paste F.Mask)
      (net 6 /IO1))
    (pad 3 smd rect (at -3.605 0.635 270) (size 1.61 0.58) (layers F.Cu F.Paste F.Mask)
      (net 5 /IO2))
    (pad 4 smd rect (at -3.605 1.905 270) (size 1.61 0.58) (layers F.Cu F.Paste F.Mask)
      (net 2 GND))
    (pad 5 smd rect (at 3.605 1.905 270) (size 1.61 0.58) (layers F.Cu F.Paste F.Mask)
      (net 8 /IO0))
    (pad 6 smd rect (at 3.605 0.635 270) (size 1.61 0.58) (layers F.Cu F.Paste F.Mask)
      (net 9 /CLK))
    (pad 7 smd rect (at 3.605 -0.635 270) (size 1.61 0.58) (layers F.Cu F.Paste F.Mask)
      (net 10 /IO3))
    (pad 8 smd rect (at 3.605 -1.905 270) (size 1.61 0.58) (layers F.Cu F.Paste F.Mask)
      (net 1 VCC))
  )

  (module MountingHole:MountingHole_3.2mm_M3 (layer F.Cu) (tedit 56D1B4CB) (tstamp 5B9F6DF1)
    (at 172.085 83.82)
    (descr "Mounting Hole 3.2mm, no annular, M3")
    (tags "mounting hole 3.2mm no annular m3")
    (attr virtual)
    (fp_text reference REF** (at 0.635 -9.525) (layer F.SilkS)
      (effects (font (size 1 1) (thickness 0.15)))
    )
    (fp_text value MountingHole_3.2mm_M3 (at -0.635 -8.255) (layer F.Fab)
      (effects (font (size 1 1) (thickness 0.15)))
    )
    (fp_circle (center 0 0) (end 3.45 0) (layer F.CrtYd) (width 0.05))
    (fp_circle (center 0 0) (end 3.2 0) (layer Cmts.User) (width 0.15))
    (fp_text user %R (at 0.3 0) (layer F.Fab)
      (effects (font (size 1 1) (thickness 0.15)))
    )
    (pad 1 np_thru_hole circle (at 0 0) (size 3.2 3.2) (drill 3.2) (layers *.Cu *.Mask))
  )

  (module MountingHole:MountingHole_3.2mm_M3 (layer F.Cu) (tedit 56D1B4CB) (tstamp 5B9F6DB6)
    (at 172.085 105.41)
    (descr "Mounting Hole 3.2mm, no annular, M3")
    (tags "mounting hole 3.2mm no annular m3")
    (attr virtual)
    (fp_text reference REF** (at 0.635 8.89) (layer F.SilkS)
      (effects (font (size 1 1) (thickness 0.15)))
    )
    (fp_text value MountingHole_3.2mm_M3 (at -0.635 7.62) (layer F.Fab)
      (effects (font (size 1 1) (thickness 0.15)))
    )
    (fp_circle (center 0 0) (end 3.45 0) (layer F.CrtYd) (width 0.05))
    (fp_circle (center 0 0) (end 3.2 0) (layer Cmts.User) (width 0.15))
    (fp_text user %R (at 0.3 0) (layer F.Fab)
      (effects (font (size 1 1) (thickness 0.15)))
    )
    (pad 1 np_thru_hole circle (at 0 0) (size 3.2 3.2) (drill 3.2) (layers *.Cu *.Mask))
  )

  (gr_text SEL (at 142.875 103.505 90) (layer F.Mask)
    (effects (font (size 1.5 1.5) (thickness 0.3)) (justify left))
  )
  (gr_text ALT (at 145.415 103.505 90) (layer F.Mask)
    (effects (font (size 1.5 1.5) (thickness 0.3)) (justify left))
  )
  (gr_text GND (at 147.955 103.505 90) (layer F.Mask)
    (effects (font (size 1.5 1.5) (thickness 0.3)) (justify left))
  )
  (gr_text 3v3 (at 165.735 103.505 90) (layer F.Mask)
    (effects (font (size 1.5 1.5) (thickness 0.3)) (justify left))
  )
  (gr_text CLK (at 160.655 103.505 90) (layer F.Mask)
    (effects (font (size 1.5 1.5) (thickness 0.3)) (justify left))
  )
  (gr_text SS (at 155.575 102.235 90) (layer F.Mask)
    (effects (font (size 1.5 1.5) (thickness 0.3)))
  )
  (gr_text IO1 (at 153.035 103.505 90) (layer F.Mask)
    (effects (font (size 1.5 1.5) (thickness 0.3)) (justify left))
  )
  (gr_text IO2 (at 150.495 103.505 90) (layer F.Mask)
    (effects (font (size 1.5 1.5) (thickness 0.3)) (justify left))
  )
  (gr_text IO3 (at 163.195 103.505 90) (layer F.Mask)
    (effects (font (size 1.5 1.5) (thickness 0.3)) (justify left))
  )
  (gr_text IO0 (at 158.115 103.505 90) (layer F.Mask)
    (effects (font (size 1.5 1.5) (thickness 0.3)) (justify left))
  )
  (gr_line (start 164.466 89.535) (end 164.465 89.535) (layer F.Mask) (width 1))
  (gr_line (start 177.165 82.55) (end 177.165 106.68) (layer Edge.Cuts) (width 2))
  (gr_line (start 133.985 78.74) (end 173.355 78.74) (layer Edge.Cuts) (width 2))
  (gr_arc (start 133.985 82.55) (end 133.985 78.74) (angle -90) (layer Edge.Cuts) (width 2))
  (gr_arc (start 173.355 82.55) (end 177.165 82.55) (angle -90) (layer Edge.Cuts) (width 2))
  (gr_arc (start 173.355 106.68) (end 173.355 110.49) (angle -90) (layer Edge.Cuts) (width 2))
  (gr_line (start 133.985 110.49) (end 173.355 110.49) (layer Edge.Cuts) (width 2))
  (gr_line (start 130.175 106.68) (end 130.175 82.55) (layer Edge.Cuts) (width 2))
  (gr_arc (start 133.985 106.68) (end 130.175 106.68) (angle -90) (layer Edge.Cuts) (width 2) (tstamp 5B9F6EDE))

  (segment (start 165.1 107.95) (end 165.735 107.315) (width 0.5) (layer B.Cu) (net 1))
  (segment (start 140.97 107.95) (end 165.1 107.95) (width 0.5) (layer B.Cu) (net 1))
  (segment (start 142.875 100.36) (end 141.274999 101.960001) (width 0.5) (layer B.Cu) (net 1))
  (segment (start 141.244999 101.960001) (end 140.335 102.87) (width 0.5) (layer B.Cu) (net 1))
  (segment (start 140.335 102.87) (end 140.335 107.315) (width 0.5) (layer B.Cu) (net 1))
  (segment (start 142.875 99.06) (end 142.875 100.36) (width 0.5) (layer B.Cu) (net 1))
  (segment (start 141.274999 101.960001) (end 141.244999 101.960001) (width 0.5) (layer B.Cu) (net 1))
  (segment (start 165.735 107.315) (end 165.735 105.41) (width 0.5) (layer B.Cu) (net 1))
  (segment (start 140.335 107.315) (end 140.97 107.95) (width 0.5) (layer B.Cu) (net 1))
  (segment (start 165.735 105.41) (end 165.735 103.505) (width 0.5) (layer F.Cu) (net 1))
  (segment (start 164.465 97.79) (end 164.465 94.41) (width 0.5) (layer F.Cu) (net 1))
  (segment (start 165.735 103.505) (end 164.465 102.235) (width 0.5) (layer F.Cu) (net 1))
  (segment (start 164.465 102.235) (end 164.465 97.79) (width 0.5) (layer F.Cu) (net 1))
  (segment (start 142.875 99.06) (end 142.875 97.79) (width 0.5) (layer B.Cu) (net 1))
  (segment (start 147.32 102.235) (end 147.955 102.87) (width 0.5) (layer B.Cu) (net 2))
  (segment (start 147.955 102.87) (end 147.955 105.41) (width 0.5) (layer B.Cu) (net 2))
  (segment (start 147.32 84.455) (end 147.32 102.235) (width 0.5) (layer B.Cu) (net 2))
  (segment (start 160.655 86.685) (end 157.79 83.82) (width 0.5) (layer F.Cu) (net 2))
  (segment (start 160.655 87.2) (end 160.655 86.685) (width 0.5) (layer F.Cu) (net 2))
  (segment (start 150.495 82.55) (end 147.955 82.55) (width 0.5) (layer B.Cu) (net 2))
  (segment (start 147.955 82.55) (end 147.32 83.185) (width 0.5) (layer B.Cu) (net 2))
  (segment (start 147.32 83.185) (end 147.32 84.455) (width 0.5) (layer B.Cu) (net 2))
  (segment (start 156.52 82.55) (end 157.79 83.82) (width 0.5) (layer F.Cu) (net 2))
  (segment (start 150.495 82.55) (end 156.52 82.55) (width 0.5) (layer F.Cu) (net 2))
  (segment (start 146.05 97.155) (end 146.05 100.885) (width 0.5) (layer F.Cu) (net 3))
  (segment (start 142.875 104.06) (end 142.875 105.41) (width 0.5) (layer F.Cu) (net 3))
  (segment (start 146.05 100.885) (end 142.875 104.06) (width 0.5) (layer F.Cu) (net 3))
  (segment (start 142.875 95.25) (end 145.415 95.25) (width 0.5) (layer F.Cu) (net 3))
  (segment (start 145.415 95.25) (end 146.05 95.885) (width 0.5) (layer F.Cu) (net 3))
  (segment (start 146.05 95.885) (end 146.05 97.155) (width 0.5) (layer F.Cu) (net 3))
  (segment (start 145.415 105.41) (end 145.415 104.14) (width 0.5) (layer F.Cu) (net 4))
  (segment (start 145.415 104.14) (end 150.495 99.06) (width 0.5) (layer F.Cu) (net 4))
  (segment (start 150.495 99.06) (end 150.495 97.79) (width 0.5) (layer F.Cu) (net 4))
  (segment (start 161.925 88.9) (end 161.925 87.2) (width 0.5) (layer F.Cu) (net 5))
  (segment (start 161.925 88.9) (end 161.38502 89.43998) (width 0.5) (layer F.Cu) (net 5))
  (segment (start 154.305 91.44) (end 156.21 89.535) (width 0.5) (layer F.Cu) (net 5))
  (segment (start 161.29 89.535) (end 161.925 88.9) (width 0.5) (layer F.Cu) (net 5))
  (segment (start 154.305 99.695) (end 154.305 91.44) (width 0.5) (layer F.Cu) (net 5))
  (segment (start 156.21 89.535) (end 161.29 89.535) (width 0.5) (layer F.Cu) (net 5))
  (segment (start 150.495 103.505) (end 154.305 99.695) (width 0.5) (layer F.Cu) (net 5))
  (segment (start 150.495 105.41) (end 150.495 103.505) (width 0.5) (layer F.Cu) (net 5))
  (segment (start 163.195 90.17) (end 163.195 87.2) (width 0.5) (layer F.Cu) (net 6))
  (segment (start 153.035 105.41) (end 153.035 103.505) (width 0.5) (layer F.Cu) (net 6))
  (segment (start 153.035 103.505) (end 155.575 100.965) (width 0.5) (layer F.Cu) (net 6))
  (segment (start 162.56 90.805) (end 163.195 90.17) (width 0.5) (layer F.Cu) (net 6))
  (segment (start 155.575 92.075) (end 156.845 90.805) (width 0.5) (layer F.Cu) (net 6))
  (segment (start 156.845 90.805) (end 162.56 90.805) (width 0.5) (layer F.Cu) (net 6))
  (segment (start 155.575 100.965) (end 155.575 92.075) (width 0.5) (layer F.Cu) (net 6))
  (segment (start 164.465 91.44) (end 164.465 87.2) (width 0.5) (layer F.Cu) (net 7))
  (segment (start 155.575 105.41) (end 155.575 103.505) (width 0.5) (layer F.Cu) (net 7))
  (segment (start 156.845 92.71) (end 157.48 92.075) (width 0.5) (layer F.Cu) (net 7))
  (segment (start 163.83 92.075) (end 164.465 91.44) (width 0.5) (layer F.Cu) (net 7))
  (segment (start 155.575 103.505) (end 156.845 102.235) (width 0.5) (layer F.Cu) (net 7))
  (segment (start 157.48 92.075) (end 163.83 92.075) (width 0.5) (layer F.Cu) (net 7))
  (segment (start 156.845 102.235) (end 156.845 92.71) (width 0.5) (layer F.Cu) (net 7))
  (segment (start 158.115 95.25) (end 158.955 94.41) (width 0.5) (layer F.Cu) (net 8))
  (segment (start 158.115 105.41) (end 158.115 95.25) (width 0.5) (layer F.Cu) (net 8))
  (segment (start 158.955 94.41) (end 160.655 94.41) (width 0.5) (layer F.Cu) (net 8))
  (segment (start 160.655 105.41) (end 160.655 102.87) (width 0.5) (layer B.Cu) (net 9))
  (segment (start 160.655 102.87) (end 154.305 96.52) (width 0.5) (layer B.Cu) (net 9))
  (segment (start 161.925 102.235) (end 161.925 97.79) (width 0.5) (layer F.Cu) (net 9))
  (segment (start 160.655 105.41) (end 160.655 103.505) (width 0.5) (layer F.Cu) (net 9))
  (segment (start 161.925 97.79) (end 161.925 94.41) (width 0.5) (layer F.Cu) (net 9))
  (segment (start 160.655 103.505) (end 161.925 102.235) (width 0.5) (layer F.Cu) (net 9))
  (segment (start 153.035 95.25) (end 154.305 96.52) (width 0.5) (layer B.Cu) (net 9))
  (segment (start 150.495 95.25) (end 153.035 95.25) (width 0.5) (layer B.Cu) (net 9))
  (segment (start 163.195 104.207919) (end 163.195 94.41) (width 0.5) (layer F.Cu) (net 10))
  (segment (start 163.195 105.41) (end 163.195 104.207919) (width 0.5) (layer F.Cu) (net 10))

)
